{
    "type":"postgres",
    "host":"localhost",
    "port":5432,
    "username":"postgres",
    "password":"contratosystem",
    "database":"postgres",
    "entities": [
        "./src/models/*.ts"
    ],
    "migrations":[
        "./src/database/migrations/*.ts"
    ],
    "cli":{
        "migrationsDir":"./src/database/migrations"
    }
}
